Joining external data to the bioacoustic dataset
…
2.2 2: Read data

Next, we will pull in our data and inspect it.

### Load in dataset
soundDF <- readr::read_tsv("https://github.com/chchang47/BIOL104PO/raw/refs/heads/master/data/bioacousticAY22-23.tsv") # read in spreadsheet from its URL and store in soundDF

### Look at the first few rows
soundDF

## # A tibble: 151,468 × 8
##    unit  date       time        ACI    SR DayNight Month season
##    <chr> <date>     <chr>     <dbl> <dbl> <chr>    <chr> <chr> 
##  1 CBio4 2023-03-23 18H 0M 0S  155.     3 Night    March Spring
##  2 CBio4 2023-03-23 18H 1M 0S  154.     3 Night    March Spring
##  3 CBio4 2023-03-23 18H 2M 0S  151.     7 Night    March Spring
##  4 CBio4 2023-03-23 18H 3M 0S  155.     3 Night    March Spring
##  5 CBio4 2023-03-23 18H 4M 0S  152.     2 Night    March Spring
##  6 CBio4 2023-03-23 18H 5M 0S  152.     4 Night    March Spring
##  7 CBio4 2023-03-23 18H 6M 0S  159.     3 Night    March Spring
##  8 CBio4 2023-03-23 18H 7M 0S  152.     2 Night    March Spring
##  9 CBio4 2023-03-23 18H 8M 0S  152.     3 Night    March Spring
## 10 CBio4 2023-03-23 18H 9M 0S  153.     7 Night    March Spring
## # ℹ 151,458 more rows
…
