Week 3
…
What does simulating our data look like?

Well, here is what the data look like initially. We’re going to use
another function, select, to pull out particular columns of
interest from the data.

airDF %>%
  dplyr::select(Date,Time,Lux,DayNight)

## # A tibble: 19,010 x 4
##    Date       Time         Lux DayNight
##    <date>     <Period>   <dbl> <chr>   
##  1 2022-12-09 13H 9M 24S  24   Day     
##  2 2022-12-09 13H 9M 25S   7.2 Day     
##  3 2022-12-09 13H 9M 26S   7.2 Day     
##  4 2022-12-09 13H 9M 27S   7.2 Day     
##  5 2022-12-09 13H 9M 28S   7.2 Day     
##  6 2022-12-09 13H 9M 29S  24   Day     
##  7 2022-12-09 13H 9M 30S   7.2 Day     
##  8 2022-12-09 13H 9M 31S   7.2 Day     
##  9 2022-12-09 13H 9M 32S   7.2 Day     
## 10 2022-12-09 13H 9M 33S   7.3 Day     
## # … with 19,000 more rows

Here’s what the data look like if we shuffle it by randomizing the
assignment of observations as day or night. This is like a chaos agent
coming around and slapping a new label for day or night on at random for
every row in the data table. (But if we think mean(Lux) is
the same for Day and Night, then that should
be a perfectly OK action by the chaos agent.)

print(resample(airDF[,c("Date","Time","Lux","DayNight")],groups=DayNight,shuffled=c("Lux")))

## # A tibble: 19,010 x 5
##    Date       Time        DayNight   Lux orig.id    
##    <date>     <Period>    <chr>    <dbl> <chr>      
##  1 2022-08-09 11H 59M 37S Day        1.8 18265.14228
##  2 2022-09-09 12H 17M 24S Day        5.2 3673.15627 
##  3 2022-08-09 12H 27M 38S Day        3.6 13915.9043 
##  4 2022-09-09 12H 13M 12S Day       11.1 3421.3739  
##  5 2022-08-09 1H 29M 3S   Day        3.1 17388.16123
##  6 2022-08-09 1H 29M 9S   Day        1.8 17394.7329 
##  7 2022-08-09 12H 25M 45S Day        1.8 13802.17942
##  8 2022-07-09 12H 53M 20S Day        1.8 16279.13722
##  9 2022-08-09 11H 23M 28S Day        3.1 5985.16086 
## 10 2022-08-09 12H 8M 41S  Day        7.2 18809.505  
## # … with 19,000 more rows

We can repeat that procedure again and see how the data shifts if we
do another shuffle.

print(resample(airDF[,c("Date","Time","Lux","DayNight")],groups=DayNight,shuffled=c("Lux")))

## # A tibble: 19,010 x 5
##    Date       Time        DayNight   Lux orig.id    
##    <date>     <Period>    <chr>    <dbl> <chr>      
##  1 2022-08-09 1H 36M 44S  Day        1.8 17849.10694
##  2 2022-09-09 13H 1M 38S  Day        5.5 10240.18896
##  3 2022-08-09 11H 27M 14S Day        3.6 6211.10211 
##  4 2022-08-09 1H 31M 0S   Day        1.8 17505.14240
##  5 2022-07-09 12H 44M 50S Day        1.8 6949.17519 
##  6 2022-08-09 12H 1M 10S  Day        1.8 8561.17882 
##  7 2022-09-09 12H 6M 32S  Day       16.8 3021.6029  
##  8 2022-09-09 13H 4M 13S  Day        3.6 10395.8407 
##  9 2022-08-09 12H 8M 36S  Day        7.2 18804.407  
## 10 2022-09-09 13H 7M 55S  Day        5.5 10617.18828
## # … with 19,000 more rows
…
