Bioacoustic analyses
…
2.2 2: Read data

Next, we will pull in our data and inspect it.

### Load in dataset
soundDF <- readr::read_tsv("https://github.com/EA30POM/site/blob/main/data/bioacousticF22.tsv?raw=true") # read in spreadsheet from its URL and store in soundDF

### Look at the first few rows
soundDF

## # A tibble: 85,654 x 7
##    unit  date       time        ACI    SR DayNight Month  
##    <chr> <date>     <chr>     <dbl> <dbl> <chr>    <chr>  
##  1 CBio3 2022-10-12 18H 0M 0S  152.     1 Night    October
##  2 CBio3 2022-10-12 18H 1M 0S  153.     1 Night    October
##  3 CBio3 2022-10-12 18H 2M 0S  152.     1 Night    October
##  4 CBio3 2022-10-12 18H 3M 0S  151.     1 Night    October
##  5 CBio3 2022-10-12 18H 4M 0S  152.     1 Night    October
##  6 CBio3 2022-10-12 18H 5M 0S  151.     1 Night    October
##  7 CBio3 2022-10-12 18H 6M 0S  154.     2 Night    October
##  8 CBio3 2022-10-12 18H 7M 0S  152.     2 Night    October
##  9 CBio3 2022-10-12 18H 8M 0S  153.     0 Night    October
## 10 CBio3 2022-10-12 18H 9M 0S  152.     2 Night    October
## # … with 85,644 more rows
…
