Soil science analyses
…
Logically, if there is a meaningful difference, then if we shuffle
our data around, that should lead to different results than what we see.
That is one way to simulate statistics to test the null
hypothesis. And specifically, in this case, we would expect to see our
observed difference is much larger than most of the simulated
values.

What does simulating our data look like?

Well, here is what the data look like initially:

soilDF[,c(1:4,18:20)]

## # A tibble: 24 x 7
##    SampleID Species Group CSS   PlantComm SoilDensity soilC
##    <chr>    <chr>   <dbl> <fct> <chr>           <dbl> <dbl>
##  1 Artcal1  Artcal      1 1     CSS             1.40  2.32 
##  2 Salapi1  Salapi      1 1     CSS             1.34  2.28 
##  3 Mallau1  Mallau      1 0     CHAP            1.36  3.34 
##  4 Samnig1  Samnig      1 0     CHAP            1.14  1.07 
##  5 Artcal2  Artcal      2 1     CSS             1.13  8.68 
##  6 Salapi2  Salapi      2 1     CSS             1.06  1.87 
##  7 Mallau2  Mallau      2 0     CHAP            0.899 3.90 
##  8 Samnig2  Samnig      2 0     CHAP            1.09  2.07 
##  9 Artcal3  Artcal      3 1     CSS             1.22  2.76 
## 10 Salapi3  Salapi      3 1     CSS             0.515 0.463
## # … with 14 more rows

Here is what it looks like after we’ve “shuffled” it once by
randomizing the PlantComm assignments. This is like taking
a deck of cards with different SoilDensity or
SoilC(arbon) values, and being able to change their color
and suite (in this case, plant community associated with that card).

resample(soilDF[,c(1:4,18:20)],groups=PlantComm,shuffled=c("SoilDensity","soilC"))

## # A tibble: 24 x 8
##    SampleID Species Group CSS   PlantComm SoilDensity soilC orig.id 
##    <chr>    <chr>   <dbl> <fct> <chr>           <dbl> <dbl> <chr>   
##  1 Mallau1  Mallau      1 0     CHAP            1.17   3.34 3.24.3  
##  2 Samnig5  Samnig      5 0     CHAP            1.36   1.62 20.3.20 
##  3 Samnig5  Samnig      5 0     CHAP            0.542  1.07 20.23.4 
##  4 Samnig5  Samnig      5 0     CHAP            1.12   1.62 20.12.20
##  5 Samnig1  Samnig      1 0     CHAP            1.07   3.34 4.16.3  
##  6 Samnig4  Samnig      4 0     CHAP            1.07   1.62 16.16.20
##  7 Mallau6  Mallau      6 0     CHAP            0.929  2.95 23.20.24
##  8 Mallau3  Mallau      3 0     CHAP            1.14  13.9  11.4.11 
##  9 Samnig4  Samnig      4 0     CHAP            0.929 10.4  16.20.12
## 10 Samnig3  Samnig      3 0     CHAP            0.929  2.57 12.20.16
## # … with 14 more rows

We can repeat that procedure again and see how the data shifts when
we do another shuffle.

resample(soilDF[,c(1:4,18:20)],groups=PlantComm,shuffled=c("SoilDensity","soilC"))

## # A tibble: 24 x 8
##    SampleID Species Group CSS   PlantComm SoilDensity  soilC orig.id 
##    <chr>    <chr>   <dbl> <fct> <chr>           <dbl>  <dbl> <chr>   
##  1 Mallau6  Mallau      6 0     CHAP            1.13   3.24  23.15.15
##  2 Mallau1  Mallau      1 0     CHAP            0.899 13.9   3.7.11  
##  3 Samnig3  Samnig      3 0     CHAP            1.07   3.34  12.16.3 
##  4 Mallau1  Mallau      1 0     CHAP            1.36  10.4   3.3.12  
##  5 Samnig5  Samnig      5 0     CHAP            0.666  0.315 20.11.23
##  6 Samnig6  Samnig      6 0     CHAP            1.36   2.57  24.3.16 
##  7 Mallau3  Mallau      3 0     CHAP            1.12   3.90  11.12.7 
##  8 Samnig4  Samnig      4 0     CHAP            1.17   2.95  16.24.24
##  9 Mallau2  Mallau      2 0     CHAP            0.542  1.62  7.23.20 
## 10 Mallau3  Mallau      3 0     CHAP            0.666 13.9   11.11.11
## # … with 14 more rows
…
